6873
 193.0 160.9 193.0 277.0
 146.5 169.6 91.4 219.0
 230.7 163.8 280.1 236.4
 91.4 221.9 18.8 250.9
 280.1 239.3 332.3 285.7
 204.6 82.5 201.7 155.1
6879
 207.9 160.8 202.0 277.2
 161.3 166.6 117.7 221.9
 245.7 163.7 274.8 248.1
 114.8 224.8 50.8 280.1
 277.7 251.0 312.6 303.4
 210.8 76.5 207.9 160.8
8615
 297.5 178.6 263.8 353.9
 238.5 187.0 184.5 264.5
 361.6 207.2 316.0 320.2
 181.1 266.2 192.9 350.5
 316.0 318.5 314.3 399.4
 309.3 63.9 300.9 161.7
8625
 274.5 159.9 262.7 352.6
 222.1 176.8 171.4 266.4
 340.4 188.6 321.9 295.1
 171.4 264.7 191.7 350.9
 326.9 295.1 330.3 371.2
 288.0 66.9 274.5 158.2
8635
 259.1 149.8 259.1 347.5
 194.9 180.2 181.3 285.0
 316.5 181.9 328.4 285.0
 181.3 285.0 196.5 374.5
 328.4 285.0 316.5 366.1
 267.5 68.6 257.4 154.8
8648
 249.8 148.1 275.1 332.3
 188.9 176.8 200.8 291.7
 312.3 175.1 341.0 276.5
 200.8 290.0 210.9 374.5
 341.0 274.8 327.5 349.2
 259.9 61.9 248.1 146.4
9752
 287.7 135.2 297.7 342.8
 210.6 157.0 210.6 277.5
 356.3 148.6 383.1 249.0
 207.3 280.9 229.1 374.6
 383.1 247.4 399.8 342.8
 279.3 26.3 277.6 130.2
9754
 284.3 133.5 299.4 342.8
 217.3 163.7 212.3 274.2
 364.7 151.9 389.8 257.4
 210.6 274.2 219.0 367.9
 386.5 257.4 409.9 346.2
 284.3 28.0 279.3 130.2
9760
 296.0 135.2 301.1 334.4
 242.5 165.3 227.4 249.0
 381.4 157.0 393.2 267.5
 227.4 250.7 202.3 339.5
 394.8 267.5 396.5 376.3
 294.4 21.3 291.0 125.1
9763
 302.7 131.8 302.7 337.8
 247.5 160.3 239.1 247.4
 379.8 153.6 384.8 262.4
 239.1 244.0 215.7 341.1
 384.8 264.1 361.3 376.3
 297.7 28.0 296.0 121.8
9825
 211.1 158.6 209.4 274.2
 155.8 162.0 134.0 229.0
 249.6 148.6 274.7 207.2
 135.7 234.0 180.9 255.7
 276.4 210.5 249.6 234.0
 199.3 74.9 201.0 157.0
9829
 193.4 162.0 200.1 262.4
 143.1 168.7 126.4 225.6
 238.6 145.2 267.0 205.5
 124.7 227.3 171.6 260.8
 265.4 205.5 243.6 237.3
 186.7 79.9 186.7 157.0
9839
 196.0 163.7 201.1 274.2
 149.2 163.7 130.7 230.6
 242.9 143.6 269.7 203.8
 129.1 229.0 174.3 254.1
 268.0 203.8 246.3 240.7
 187.7 85.0 194.4 163.7
10080
 289.8 143.0 276.3 334.0
 217.1 168.4 207.0 291.7
 345.6 165.0 367.6 283.3
 208.7 291.7 235.7 379.6
 367.6 281.6 352.4 374.5
 278.0 43.3 288.1 137.9
10082
 293.1 137.9 279.6 328.9
 217.1 161.6 205.2 274.8
 342.1 159.9 370.9 273.1
 203.6 274.8 230.6 371.2
 374.3 273.1 374.3 367.8
 272.9 38.2 288.1 132.9
10084
 292.9 137.9 287.9 330.6
 225.3 159.9 211.8 278.2
 350.4 158.2 375.7 261.3
 208.4 281.6 233.8 357.6
 375.7 263.0 397.7 345.8
 284.5 34.8 292.9 136.2
10090
 292.1 137.9 290.4 327.2
 219.4 159.9 204.2 273.1
 341.1 156.5 346.2 246.1
 200.8 273.1 217.7 340.7
 346.2 247.8 396.9 312.0
 278.6 34.8 287.0 132.9
10124
 301.3 136.9 306.3 334.4
 242.7 155.3 241.0 279.2
 339.8 168.7 393.4 269.1
 244.3 282.5 334.8 302.6
 390.0 265.8 462.0 317.7
 296.2 29.7 291.2 130.2
10131
 305.6 140.2 307.2 341.1
 245.3 155.3 255.3 287.6
 345.8 162.0 401.0 264.1
 253.7 282.5 342.4 301.0
 399.3 267.5 478.0 316.0
 300.5 33.0 292.2 135.2
10135
 307.5 140.2 314.2 342.8
 248.9 158.6 260.7 282.5
 352.8 165.3 389.6 272.5
 262.3 284.2 351.1 306.0
 389.6 270.8 454.9 311.0
 304.2 29.7 300.8 140.2
10172
 292.7 135.2 299.4 337.8
 224.1 155.3 227.4 230.6
 358.0 141.9 383.2 220.6
 222.4 230.6 148.7 244.0
 383.2 220.6 433.4 249.0
 294.4 33.0 292.7 133.5
10204
 279.3 131.8 292.7 326.1
 200.6 151.9 188.9 239.0
 331.2 138.5 359.7 213.9
 192.2 242.3 105.2 272.5
 361.3 213.9 416.6 234.0
 287.7 31.4 282.6 123.5
10232
 270.9 130.2 282.6 334.4
 202.3 150.3 183.8 259.1
 339.6 146.9 373.1 245.7
 180.5 264.1 170.5 361.2
 371.4 247.4 403.2 339.5
 267.6 24.7 267.6 128.5
10257
 260.9 126.8 277.6 324.4
 209.0 158.6 177.2 250.7
 342.9 153.6 369.7 234.0
 180.5 255.7 88.4 237.3
 364.7 235.7 419.9 232.3
 245.8 28.0 252.5 123.5
10980
 254.0 173.7 228.9 274.2
 170.3 190.4 131.8 312.7
 309.3 170.3 359.5 259.1
 133.5 314.3 160.2 381.3
 359.5 257.4 374.6 341.1
 260.7 49.8 265.7 165.3
10983
 270.7 140.2 243.9 290.9
 183.6 173.7 141.8 290.9
 315.9 146.9 361.1 245.7
 141.8 292.6 178.6 356.2
 362.8 242.3 381.2 304.3
 262.3 34.7 270.7 130.2
10985
 281.0 118.4 265.9 277.5
 195.6 148.6 165.5 265.8
 329.6 126.8 371.4 222.3
 158.8 267.5 195.6 327.7
 373.1 225.6 398.2 292.6
 276.0 7.9 277.7 113.4
10989
 266.3 98.3 259.6 275.8
 185.9 131.8 155.8 247.4
 314.8 110.1 363.4 193.8
 152.4 245.7 182.5 282.5
 365.1 193.8 390.2 237.3
 269.6 4.6 262.9 91.7
11461
 259.2 155.3 254.2 326.1
 214.0 170.3 205.6 259.1
 327.8 170.3 339.6 277.5
 205.6 259.1 150.4 295.9
 341.2 277.5 299.4 334.4
 272.6 48.1 260.9 148.6
11469
 244.1 158.6 242.5 334.4
 167.1 168.7 153.7 270.8
 307.8 162.0 321.2 270.8
 155.4 270.8 121.9 322.7
 321.2 270.8 322.8 327.7
 250.8 39.7 240.8 148.6
11478
 244.1 167.0 242.5 361.2
 167.1 193.8 158.7 290.9
 321.2 178.7 326.2 299.3
 160.4 294.3 126.9 346.2
 326.2 302.6 329.5 349.5
 257.5 44.8 249.2 163.7
11487
 234.1 190.4 229.1 381.3
 142.0 218.9 131.9 326.1
 296.0 202.2 309.4 316.0
 135.3 324.4 113.5 373.0
 307.8 319.4 322.8 379.7
 242.5 64.9 234.1 185.4
11644
 359.3 178.7 349.2 401.4
 287.3 205.5 230.4 344.5
 446.4 200.5 464.8 309.3
 233.7 347.8 175.1 322.7
 466.5 311.0 508.3 352.9
 359.3 44.8 352.6 175.4
11648
 364.1 155.3 352.4 398.1
 295.5 188.8 230.2 317.7
 451.2 178.7 496.4 301.0
 231.8 317.7 136.4 301.0
 494.7 304.3 524.9 324.4
 369.2 28.0 355.8 146.9
11653
 359.8 168.7 358.2 398.1
 282.8 202.2 220.9 322.7
 453.6 203.8 483.8 342.8
 222.5 321.0 108.7 304.3
 482.1 339.5 540.7 352.9
 366.5 34.7 356.5 163.7
11658
 372.7 170.3 374.4 403.1
 289.0 197.1 247.1 302.6
 471.5 193.8 484.9 356.2
 248.8 302.6 116.5 304.3
 481.5 342.8 558.6 369.6
 377.7 29.7 364.3 167.0
11959
 308.0 141.3 302.9 345.8
 238.7 165.0 223.5 259.6
 379.0 154.8 404.3 266.4
 216.7 256.2 242.1 271.5
 401.0 268.1 301.2 293.4
 311.4 31.5 308.0 134.5
12029
 309.2 137.9 305.9 339.1
 228.1 161.6 211.2 276.5
 378.5 158.2 398.8 268.1
 212.9 274.8 246.7 288.4
 398.8 268.1 363.3 305.3
 307.5 26.4 307.5 131.2
12036
 305.8 141.3 304.1 340.7
 228.0 163.3 214.5 273.1
 378.5 161.6 400.4 264.7
 212.8 273.1 258.5 295.1
 400.4 263.0 359.9 298.5
 309.2 29.8 304.1 139.6
12074
 312.3 134.5 322.5 356.0
 249.8 163.3 236.3 271.5
 391.8 156.5 422.2 268.1
 231.2 266.4 258.2 295.1
 422.2 268.1 341.1 301.9
 314.0 23.0 314.0 134.5
12101
 234.4 116.8 226.0 270.8
 182.5 140.2 175.8 220.6
 289.6 135.2 293.0 222.3
 177.4 222.3 164.0 284.2
 291.3 218.9 294.6 282.5
 236.0 34.7 226.0 106.7
12111
 237.7 118.4 231.0 282.5
 190.8 133.5 180.8 218.9
 292.9 138.5 296.3 232.3
 180.8 218.9 162.3 270.8
 298.0 232.3 286.2 306.0
 239.4 38.1 232.7 115.1
12121
 241.0 116.8 236.0 284.2
 197.5 135.2 184.1 212.2
 294.6 135.2 299.6 220.6
 180.7 217.2 185.7 279.2
 299.6 223.9 289.5 299.3
 242.7 34.7 241.0 113.4
12126
 231.0 116.8 222.6 279.2
 184.1 136.9 172.4 222.3
 284.6 138.5 287.9 237.3
 167.4 223.9 175.7 274.2
 286.2 239.0 274.5 289.2
 234.3 39.7 229.3 116.8
16193
 192.2 158.6 200.6 342.8
 128.6 172.0 108.5 264.1
 249.2 172.0 294.4 237.3
 108.5 265.8 101.8 349.5
 297.7 244.0 349.6 195.5
 205.6 68.2 192.2 157.0
16197
 193.9 162.0 205.6 331.1
 133.6 172.0 111.8 267.5
 257.5 172.0 302.7 235.7
 111.8 270.8 101.8 352.9
 311.1 242.3 349.6 182.1
 207.3 66.5 190.5 160.3
16223
 245.8 162.0 272.6 339.5
 195.6 178.7 168.8 275.8
 329.5 163.7 351.3 247.4
 168.8 275.8 153.7 351.2
 353.0 250.7 322.8 297.6
 249.2 56.5 247.5 158.6
16230
 269.2 173.7 286.0 354.5
 202.3 177.0 178.8 275.8
 346.3 165.3 368.0 262.4
 178.8 277.5 165.4 354.5
 369.7 264.1 332.9 326.1
 274.3 61.5 260.9 173.7
25031
 294.5 151.9 289.5 334.4
 232.6 170.3 199.1 264.1
 363.2 177.0 356.5 274.2
 199.1 265.8 128.8 329.4
 358.2 274.2 351.5 324.4
 296.2 39.7 299.6 148.6
25037
 316.8 158.6 316.8 366.3
 249.9 177.0 204.7 274.2
 390.5 180.4 388.8 289.2
 206.3 277.5 131.0 336.1
 388.8 290.9 382.2 354.5
 320.2 43.1 318.5 155.3
25043
 319.5 153.6 316.1 378.0
 257.5 198.8 214.0 277.5
 394.8 182.1 401.5 304.3
 210.6 279.2 140.3 336.1
 399.8 306.0 404.9 384.7
 327.8 38.1 329.5 150.3
25049
 327.8 157.0 307.8 378.0
 269.2 180.4 230.7 277.5
 396.5 178.7 431.7 306.0
 227.4 277.5 163.8 337.8
 431.7 306.0 480.2 389.7
 326.2 29.7 331.2 153.6
28783
 231.9 151.9 228.5 292.6
 178.3 178.7 146.5 249.0
 282.1 160.3 297.2 247.4
 144.8 252.4 111.3 302.6
 293.8 250.7 312.3 309.3
 231.9 63.2 231.9 143.6
28790
 237.2 151.9 240.6 295.9
 183.7 170.3 153.5 244.0
 294.2 165.3 305.9 250.7
 151.8 247.4 93.2 309.3
 304.2 254.1 307.6 311.0
 235.6 59.8 237.2 143.6
28797
 238.2 146.9 243.2 301.0
 186.3 172.0 166.2 242.3
 296.8 162.0 311.9 259.1
 164.5 242.3 112.6 306.0
 308.5 260.8 315.2 324.4
 234.9 59.8 234.9 146.9
28811
 244.9 148.6 244.9 297.6
 189.7 168.7 159.5 237.3
 306.9 167.0 306.9 260.8
 156.2 237.3 147.8 292.6
 305.2 260.8 316.9 334.4
 243.2 54.8 244.9 146.9
28998
 245.9 150.3 250.9 309.3
 187.3 180.4 182.3 274.2
 307.8 170.3 316.2 265.8
 185.6 279.2 170.5 351.2
 312.9 264.1 331.3 332.8
 252.6 58.2 247.6 145.2
29002
 253.5 150.3 253.5 306.0
 186.6 180.4 179.9 282.5
 310.5 167.0 318.8 267.5
 181.5 287.6 163.1 373.0
 320.5 274.2 328.9 344.5
 251.9 54.8 248.5 143.6
29010
 259.2 153.6 264.2 317.7
 187.2 182.1 180.5 277.5
 316.1 170.3 321.1 272.5
 175.4 280.9 157.0 376.3
 319.4 270.8 332.8 347.8
 265.8 54.8 259.2 146.9
29018
 264.1 155.3 275.8 321.0
 193.8 188.8 183.7 280.9
 324.4 173.7 331.1 277.5
 183.7 282.5 163.6 367.9
 329.4 277.5 346.2 357.9
 267.5 53.1 264.1 151.9
32386
 267.7 141.9 261.0 324.4
 205.7 172.0 199.0 279.2
 326.3 175.4 341.4 274.2
 195.7 279.2 220.8 351.2
 341.4 272.5 376.5 361.2
 259.3 51.5 264.3 136.9
32398
 287.6 163.7 286.0 346.2
 219.0 185.4 187.2 294.3
 334.5 200.5 344.6 302.6
 185.5 294.3 163.7 379.7
 344.6 302.6 331.2 386.3
 279.3 59.8 279.3 158.6
41999
 240.8 160.3 247.5 304.3
 182.2 178.7 180.6 290.9
 299.5 170.3 311.2 265.8
 183.9 290.9 209.0 347.8
 309.5 267.5 291.1 342.8
 235.8 66.5 239.2 151.9
42005
 258.9 148.6 258.9 309.3
 191.9 173.7 186.9 282.5
 314.2 158.6 322.5 269.1
 188.6 285.9 217.0 352.9
 324.2 270.8 302.4 341.1
 245.5 54.8 248.8 145.2
42008
 257.5 151.9 262.6 316.0
 193.9 182.1 190.6 289.2
 314.5 165.3 324.5 269.1
 190.6 290.9 217.4 359.6
 324.5 272.5 316.2 351.2
 245.8 58.2 252.5 151.9
42011
 267.6 167.0 265.9 332.8
 193.9 187.1 190.5 304.3
 321.2 177.0 329.5 295.9
 192.2 307.7 220.7 379.7
 329.5 297.6 322.8 371.3
 255.8 66.5 262.5 160.3
48502
 253.5 131.8 248.5 297.6
 194.9 158.6 189.9 254.1
 302.1 153.6 307.1 249.0
 186.5 257.4 181.5 331.1
 302.1 249.0 315.5 321.0
 250.2 41.4 251.8 125.1
48521
 259.8 135.2 253.1 304.3
 202.9 158.6 191.2 249.0
 308.4 162.0 313.4 252.4
 189.5 254.1 181.1 336.1
 311.7 252.4 328.5 326.1
 256.5 43.1 256.5 133.5
48546
 276.1 140.2 267.8 317.7
 219.2 165.3 202.5 267.5
 334.7 170.3 338.1 272.5
 204.1 267.5 192.4 362.9
 333.1 270.8 354.8 352.9
 277.8 41.4 267.8 140.2
50137
 200.7 160.3 199.0 294.3
 157.2 182.1 113.6 237.3
 240.9 182.1 291.1 245.7
 106.9 239.0 147.1 280.9
 291.1 245.7 254.3 285.9
 209.1 88.3 197.3 155.3
50147
 198.2 160.3 188.2 292.6
 153.0 178.7 102.8 229.0
 235.0 185.4 281.9 252.4
 97.7 230.6 132.9 277.5
 283.6 254.1 240.1 289.2
 206.6 90.0 199.9 155.3
50468
 210.2 126.8 205.2 262.4
 166.7 146.9 146.6 232.3
 255.4 145.2 265.5 232.3
 146.6 235.7 124.8 309.3
 263.8 235.7 282.2 295.9
 218.6 49.8 206.9 121.8
50492
 238.0 123.5 239.6 290.9
 187.7 150.3 167.6 242.3
 288.2 146.9 298.2 247.4
 166.0 239.0 157.6 324.4
 293.2 247.4 315.0 319.4
 244.7 41.4 239.6 125.1
50495
 239.6 130.2 232.9 284.2
 184.4 153.6 169.3 247.4
 293.2 148.6 301.6 237.3
 166.0 249.0 149.2 331.1
 298.2 237.3 321.7 307.7
 251.4 41.4 239.6 123.5
50509
 262.1 136.9 253.7 302.6
 200.1 167.0 180.0 265.8
 312.3 157.0 322.4 265.8
 178.4 265.8 151.6 357.9
 322.4 264.1 342.5 346.2
 260.4 41.4 257.1 131.8
53710
 317.8 167.0 322.8 399.7
 250.8 200.5 148.7 312.7
 383.1 192.1 458.5 294.3
 147.0 314.3 229.1 391.4
 460.1 290.9 403.2 369.6
 304.4 34.7 312.8 160.3
53740
 319.5 158.6 332.9 399.7
 249.2 200.5 145.3 314.3
 386.5 195.5 460.1 292.6
 143.7 312.7 232.4 394.7
 461.8 292.6 399.8 366.3
 296.0 36.4 316.1 151.9
53770
 317.8 160.3 324.5 403.1
 250.8 192.1 148.7 312.7
 384.8 187.1 456.8 292.6
 143.7 319.4 232.4 389.7
 461.8 294.3 398.2 367.9
 304.4 31.4 316.1 155.3
56453
 210.6 158.6 217.3 366.3
 143.7 197.1 133.6 336.1
 270.9 190.4 277.6 312.7
 133.6 337.8 190.5 401.4
 277.6 312.7 274.3 383.0
 198.9 46.4 203.9 146.9
56462
 198.9 170.3 207.3 378.0
 123.6 212.2 153.7 339.5
 275.9 200.5 289.3 332.8
 152.0 344.5 250.8 299.3
 287.7 331.1 185.5 312.7
 167.1 58.2 198.9 158.6
56471
 200.6 172.0 200.6 388.0
 126.9 213.9 145.3 347.8
 279.3 200.5 279.3 331.1
 138.6 347.8 237.4 311.0
 281.0 332.8 182.2 342.8
 160.4 56.5 193.9 153.6
